<?xml version="1.0" encoding="utf-8"?>
<!-- Generator: Adobe Illustrator 19.2.0, SVG Export Plug-In . SVG Version: 6.00 Build 0)  -->
<svg version="1.1" id="Capa_1" xmlns="http://www.w3.org/2000/svg" xmlns:xlink="http://www.w3.org/1999/xlink" x="0px" y="0px"
	 viewBox="0 0 60 60" style="enable-background:new 0 0 60 60;" xml:space="preserve">
<style type="text/css">
	.st0{fill:#C6C2C1;}
	.st1{fill:#556080;}
	.st2{fill:#ECF0F1;}
	.st3{fill:#8697CB;}
	.st4{fill:#F3D55B;}
	.st5{fill:#71C285;}
	.st6{fill:#D1D4D1;}
	.st7{fill:#26B99A;}
</style>
<path class="st0" d="M30,59c15.4,0,28-12.6,28-28s-12.6-28-28-28s-28,12.6-28,28S14.5,59,30,59z"/>
<g>
	<rect x="11.1" y="11.7" class="st1" width="37.9" height="3.9"/>
	<rect x="12.4" y="15.7" class="st2" width="35.3" height="27.4"/>
	<path class="st3" d="M33.9,40.5c-0.4,0-0.7-0.3-0.7-0.7v-2c0-0.4,0.3-0.7,0.7-0.7s0.7,0.3,0.7,0.7v2C34.6,40.2,34.3,40.5,33.9,40.5
		z"/>
	<path class="st4" d="M36.5,40.5c-0.4,0-0.7-0.3-0.7-0.7v-4.6c0-0.4,0.3-0.7,0.7-0.7s0.7,0.3,0.7,0.7v4.6
		C37.2,40.2,36.9,40.5,36.5,40.5z"/>
	<path class="st3" d="M39.1,40.5c-0.4,0-0.7-0.3-0.7-0.7v-3.3c0-0.4,0.3-0.7,0.7-0.7s0.7,0.3,0.7,0.7v3.3
		C39.8,40.2,39.5,40.5,39.1,40.5z"/>
	<path class="st5" d="M41.8,40.5c-0.4,0-0.7-0.3-0.7-0.7V32c0-0.4,0.3-0.7,0.7-0.7c0.4,0,0.7,0.3,0.7,0.7v7.8
		C42.4,40.2,42.1,40.5,41.8,40.5z"/>
	<path class="st3" d="M44.4,40.5c-0.4,0-0.7-0.3-0.7-0.7v-5.2c0-0.4,0.3-0.7,0.7-0.7c0.4,0,0.7,0.3,0.7,0.7v5.2
		C45,40.2,44.7,40.5,44.4,40.5z"/>
	<path class="st6" d="M23.5,37.2h-6.5c-0.4,0-0.7-0.3-0.7-0.7c0-0.4,0.3-0.7,0.7-0.7h6.5c0.4,0,0.7,0.3,0.7,0.7
		C24.1,36.9,23.8,37.2,23.5,37.2z"/>
	<path class="st6" d="M26.7,39.8h-9.8c-0.4,0-0.7-0.3-0.7-0.7c0-0.4,0.3-0.7,0.7-0.7h9.8c0.4,0,0.7,0.3,0.7,0.7
		C27.4,39.5,27.1,39.8,26.7,39.8z"/>
	<circle class="st7" cx="23.1" cy="25.8" r="6.9"/>
	<path class="st4" d="M22.8,18.9C22.8,18.9,22.8,18.9,22.8,18.9l0,7.1c0,0,0,0,0,0H30c0,0,0,0,0,0C30.2,22.1,26.9,18.7,22.8,18.9z"
		/>
	<path class="st6" d="M41.1,23.5h-5.2c-0.4,0-0.7-0.3-0.7-0.7c0-0.4,0.3-0.7,0.7-0.7h5.2c0.4,0,0.7,0.3,0.7,0.7
		C41.8,23.2,41.5,23.5,41.1,23.5z"/>
	<path class="st6" d="M44.4,23.5c-0.2,0-0.3-0.1-0.5-0.2c-0.1-0.1-0.2-0.3-0.2-0.5s0.1-0.3,0.2-0.5c0.2-0.2,0.7-0.2,0.9,0
		c0.1,0.1,0.2,0.3,0.2,0.5s-0.1,0.3-0.2,0.5C44.7,23.4,44.5,23.5,44.4,23.5z"/>
	<path class="st6" d="M44.4,20.2h-2c-0.4,0-0.7-0.3-0.7-0.7c0-0.4,0.3-0.7,0.7-0.7h2c0.4,0,0.7,0.3,0.7,0.7
		C45,19.9,44.7,20.2,44.4,20.2z"/>
	<path class="st6" d="M37.2,20.2h-1.3c-0.4,0-0.7-0.3-0.7-0.7c0-0.4,0.3-0.7,0.7-0.7h1.3c0.4,0,0.7,0.3,0.7,0.7
		C37.8,19.9,37.5,20.2,37.2,20.2z"/>
	<path class="st6" d="M39.8,20.2c-0.2,0-0.3-0.1-0.5-0.2c-0.1-0.1-0.2-0.3-0.2-0.5c0-0.2,0.1-0.3,0.2-0.5c0.2-0.2,0.7-0.2,0.9,0
		c0.1,0.1,0.2,0.3,0.2,0.5c0,0.2-0.1,0.3-0.2,0.5C40.1,20.2,40,20.2,39.8,20.2z"/>
	<path class="st1" d="M48.9,43.7H11.1c-0.4,0-0.7-0.3-0.7-0.7s0.3-0.7,0.7-0.7h37.9c0.4,0,0.7,0.3,0.7,0.7S49.3,43.7,48.9,43.7z"/>
	<path class="st1" d="M30,45.7c-0.4,0-0.7-0.3-0.7-0.7v-2c0-0.4,0.3-0.7,0.7-0.7s0.7,0.3,0.7,0.7v2C30.7,45.4,30.4,45.7,30,45.7z"/>
	<path class="st1" d="M30,50.3c-1.4,0-2.6-1.2-2.6-2.6c0-1.4,1.2-2.6,2.6-2.6c1.4,0,2.6,1.2,2.6,2.6C32.6,49.1,31.4,50.3,30,50.3z
		 M30,46.3c-0.7,0-1.3,0.6-1.3,1.3S29.3,49,30,49s1.3-0.6,1.3-1.3S30.7,46.3,30,46.3z"/>
</g>
</svg>
